…
Common significant genes for the transition healthy moderate

    results_de |> 
        select(-se) |> 
        unnest(significant_genes_1) |> 
        tidybulk:::drop_class("tidySummarizedExperiment_nested") |>  
        select(-significant_genes_2) |> 
        nest(data = -significant_genes_1) |> 
        mutate(n = map_int(data, ~ nrow(.x))) |> 
        arrange(desc(n)) |>
        mutate(cell_types = map_chr(data, ~ .x |> pull(1) |> paste(collapse=", "))) |> 
      select(-data)

    ## # A tibble: 332 × 3
    ##    significant_genes_1     n cell_types                                         
    ##    <chr>               <int> <chr>                                              
    ##  1 FOS_RNA                18 B memory, B naive, CD14 Mono, CD16 Mono, CD4 Naive…
    ##  2 NR4A2_RNA              15 B intermediate, B memory, B naive, CD14 Mono, CD4 …
    ##  3 DUSP1_RNA              12 CD14 Mono, CD4 Naive, CD4 TCM, CD4 TEM, CD8 Naive,…
    ##  4 FOSB_RNA               11 CD14 Mono, CD16 Mono, CD4 TCM, CD4 TEM, CD8 Naive,…
    ##  5 PPP1R15A_RNA            9 CD14 Mono, CD4 Naive, CD4 TCM, CD8 Naive, CD8 TCM,…
    ##  6 AC004556.3_RNA          7 B memory, B naive, CD14 Mono, CD8 Naive, CD8 TEM, …
    ##  7 RGS1_RNA                7 CD4 TCM, CD4 TEM, CD8 TCM, CD8 TEM, cDC2, NK, NK_C…
    ##  8 AC020916.1_RNA          6 CD14 Mono, CD4 TCM, CD8 TCM, CD8 TEM, cDC2, NK     
    ##  9 AREG_RNA                6 CD14 Mono, CD4 Naive, CD4 TCM, CD8 Naive, CD8 TEM,…
    ## 10 SOCS3_RNA               6 CD14 Mono, CD4 Naive, CD4 TCM, CD8 Naive, cDC2, Tr…
    ## # … with 322 more rows

Common significant genes for the transition moderate severe

    results_de |> 
        select(-se) |> 
        unnest(significant_genes_2) |> 
        tidybulk:::drop_class("tidySummarizedExperiment_nested") |>  
        select(-significant_genes_1) |> 
        nest(data = -significant_genes_2) |> 
        mutate(n = map_int(data, ~ nrow(.x))) |> 
        arrange(desc(n)) |>
        mutate(cell_types = map_chr(data, ~ .x |> pull(1) |> paste(collapse=", "))) |> 
      select(-data)

    ## # A tibble: 71 × 3
    ##    significant_genes_2     n cell_types                            
    ##    <chr>               <int> <chr>                                 
    ##  1 SCGB3A1_RNA             4 CD4 Naive, CD4 TCM, CD8 Naive, CD8 TCM
    ##  2 KRT1_RNA                2 CD4 TCM, CD8 TCM                      
    ##  3 RGPD2_RNA               2 CD4 TCM, CD8 Naive                    
    ##  4 AC004556.3_RNA          2 CD8 Naive, Plasmablast                
    ##  5 ZFY_RNA                 2 NK_CD56bright, Plasmablast            
    ##  6 IGHE_RNA                1 B naive                               
    ##  7 KLRK1_RNA               1 B naive                               
    ##  8 CCL4L2_RNA              1 CD14 Mono                             
    ##  9 ZFAT_RNA                1 CD14 Mono                             
    ## 10 KIAA1324_RNA            1 CD4 Naive                             
    ## # … with 61 more rows
