…
    ## # A tibble: 280 × 9
    ##    predicted.c…¹ param…² covar…³ c_lower c_eff…⁴ c_upper  c_pH0   c_FDR count_…⁵
    ##    <chr>         <chr>   <chr>     <dbl>   <dbl>   <dbl>  <dbl>   <dbl> <list>  
    ##  1 B             (Inter… <NA>    -6.91     2.70    9.83  0.312  0.0612  <tibble>
    ##  2 B             aliveT… alive    0.0625   0.233   0.420 0.343  0.0802  <tibble>
    ##  3 B             sample… sample  -0.312    0.182   0.571 0.534  0.174   <tibble>
    ##  4 B             sample… sample   0.123    0.706   1.24  0.0398 0.0276  <tibble>
    ##  5 B             sample… sample   0.296    0.821   1.24  0.0125 0.00561 <tibble>
    ##  6 B             sample… sample  -3.06    -1.09    0.461 0.134  0.0380  <tibble>
    ##  7 B             sample… sample  -5.76    -1.26   -0.748 0      0       <tibble>
    ##  8 B             sample… sample  -3.21    -0.455   1.77  0.420  0.121   <tibble>
    ##  9 B             sample… sample  -0.820    1.45    3.90  0.157  0.0622  <tibble>
    ## 10 B             sample… sample  -0.555    2.90    6.83  0.0503 0.0168  <tibble>
    ## # … with 270 more rows, and abbreviated variable names ¹​predicted.celltype.l1,
    ## #   ²​parameter, ³​covariate, ⁴​c_effect, ⁵​count_data
    ## # ℹ Use `print(n = ...)` to see more rows
…
